…
Update the names in ‘litters_df’

``` r
litters_df = 
  janitor::clean_names(litters_df)
```

``` r
litters_df
```

    ## # A tibble: 49 × 8
    ##    group litter_number   gd0_weight gd18_weight gd_of_birth pups_born_alive
    ##    <chr> <chr>           <chr>      <chr>             <dbl>           <dbl>
    ##  1 Con7  #85             19.7       34.7                 20               3
    ##  2 Con7  #1/2/95/2       27         42                   19               8
    ##  3 Con7  #5/5/3/83/3-3   26         41.4                 19               6
    ##  4 Con7  #5/4/2/95/2     28.5       44.1                 19               5
    ##  5 Con7  #4/2/95/3-3     <NA>       <NA>                 20               6
    ##  6 Con7  #2/2/95/3-2     <NA>       <NA>                 20               6
    ##  7 Con7  #1/5/3/83/3-3/2 <NA>       <NA>                 20               9
    ##  8 Con8  #3/83/3-3       <NA>       <NA>                 20               9
    ##  9 Con8  #2/95/3         <NA>       <NA>                 20               8
    ## 10 Con8  #3/5/2/2/95     28.5       <NA>                 20               8
    ## # ℹ 39 more rows
    ## # ℹ 2 more variables: pups_dead_birth <dbl>, pups_survive <dbl>
…
    ## New names:
    ## Rows: 44 Columns: 8
    ## ── Column specification
    ## ──────────────────────────────────────────────────────── Delimiter: "," chr
    ## (2): Con7, #4/2/95/3-3 dbl (6): NA...3, NA...4, 20, 6...6, 0, 6...8
    ## ℹ Use `spec()` to retrieve the full column specification for this data. ℹ
    ## Specify the column types or set `show_col_types = FALSE` to quiet this message.
    ## • `NA` -> `NA...3`
    ## • `NA` -> `NA...4`
    ## • `6` -> `6...6`
    ## • `6` -> `6...8`

    ## # A tibble: 44 × 8
    ##    Con7  `#4/2/95/3-3`   NA...3 NA...4  `20` `6...6`   `0` `6...8`
    ##    <chr> <chr>            <dbl>  <dbl> <dbl>   <dbl> <dbl>   <dbl>
    ##  1 Con7  #2/2/95/3-2       NA       NA    20       6     0       4
    ##  2 Con7  #1/5/3/83/3-3/2   NA       NA    20       9     0       9
    ##  3 Con8  #3/83/3-3         NA       NA    20       9     1       8
    ##  4 Con8  #2/95/3           NA       NA    20       8     0       8
    ##  5 Con8  #3/5/2/2/95       28.5     NA    20       8     0       8
    ##  6 Con8  #5/4/3/83/3       28       NA    19       9     0       8
    ##  7 Con8  #1/6/2/2/95-2     NA       NA    20       7     0       6
    ##  8 Con8  #3/5/3/83/3-3-2   NA       NA    20       8     0       8
    ##  9 Con8  #2/2/95/2         NA       NA    19       5     0       4
    ## 10 Con8  #3/6/2/2/95-3     NA       NA    20       7     0       7
    ## # ℹ 34 more rows
…
